<?xml version="1.0" encoding="UTF-8"?>
<robot generator="Robot 7.3.2 (Python 3.13.5 on win32)" generated="2025-10-28T12:44:05.043990" rpa="false" schemaversion="5">
<suite id="s1" name="Tests" source="D:\automation\tests">
<suite id="s1-s1" name="Get Api" source="D:\automation\tests\get_api.robot">
<test id="s1-s1-t1" name="Verify GET Users API" line="5">
<kw name="Create Session" owner="RequestsLibrary">
<msg time="2025-10-28T12:44:05.222675" level="INFO">Creating Session using : alias=reqres, url=https://reqres.in/, headers={},                     cookies={}, auth=None, timeout=None, proxies=None, verify=False,                     debug=0 </msg>
<arg>reqres</arg>
<arg>https://reqres.in/</arg>
<arg>verify=False</arg>
<doc>Create Session: create a HTTP session to a server</doc>
<status status="PASS" start="2025-10-28T12:44:05.221917" elapsed="0.001256"/>
</kw>
<kw name="GET On Session" owner="RequestsLibrary">
<msg time="2025-10-28T12:44:05.742696" level="INFO">GET Request : url=https://reqres.in/api/users?page=2 
 path_url=/api/users?page=2 
 headers={'User-Agent': 'python-requests/2.32.5', 'Accept-Encoding': 'gzip, deflate', 'Accept': '*/*', 'Connection': 'keep-alive'} 
 body=None 
 </msg>
<msg time="2025-10-28T12:44:05.742951" level="INFO">GET Response : url=https://reqres.in/api/users?page=2 
 status=200, reason=OK 
 headers={'Date': 'Tue, 28 Oct 2025 07:14:05 GMT', 'Content-Type': 'application/json; charset=utf-8', 'Transfer-Encoding': 'chunked', 'Connection': 'keep-alive', 'Access-Control-Allow-Credentials': 'true', 'Access-Control-Allow-Headers': 'Origin, X-Requested-With, Content-Type, Accept, Authorization, x-api-key', 'Access-Control-Allow-Methods': 'GET, POST, PUT, DELETE, OPTIONS', 'Access-Control-Allow-Origin': 'http://localhost:5173', 'Etag': 'W/"622-KQjAlhjVbadr0FbMXm/7VbcnD4w"', 'Nel': '{"report_to":"heroku-nel","response_headers":["Via"],"max_age":3600,"success_fraction":0.01,"failure_fraction":0.1}', 'Ratelimit-Limit': '100', 'Ratelimit-Policy': '100;w=60', 'Ratelimit-Remaining': '98', 'Ratelimit-Reset': '300', 'Referrer-Policy': 'strict-origin-when-cross-origin', 'Report-To': '{"group":"heroku-nel","endpoints":[{"url":"https://nel.heroku.com/reports?s=XHu%2BPB7e3LZQPUm2J1v6hARLI%2BsqEGRYG8aw2hfGW5M%3D\\u0026sid=c4c9725f-1ab0-44d8-820f-430df2718e11\\u0026ts=1761628881"}],"max_age":3600}', 'Reporting-Endpoints': 'heroku-nel="https://nel.heroku.com/reports?s=XHu%2BPB7e3LZQPUm2J1v6hARLI%2BsqEGRYG8aw2hfGW5M%3D&amp;sid=c4c9725f-1ab0-44d8-820f-430df2718e11&amp;ts=1761628881"', 'Server': 'cloudflare', 'Vary': 'Origin, accept-encoding', 'Via': '1.1 heroku-router', 'X-Content-Type-Options': 'nosniff', 'X-Frame-Options': 'DENY', 'X-Powered-By': 'ReqRes.in - Deploy backends in 30 seconds', 'X-Reqres-Docs': 'https://reqres.in', 'X-Reqres-Message': 'This API is powered by ReqRes. Deploy your own backend in 30 seconds!', 'X-Reqres-Templates': 'https://app.reqres.in/templates', 'X-Reqres-Upgrade': 'https://app.reqres.in/upgrade', 'X-Request-Id': '31173e3b-8586-af02-541c-13123d135c5e', 'X-Xss-Protection': '1; mode=block', 'Age': '6763', 'Cache-Control': 'max-age=14400', 'cf-cache-status': 'HIT', 'Content-Encoding': 'gzip', 'CF-RAY': '9958a261dc5afd93-SIN'} 
 body={"page":2,"per_page":6,"total":12,"total_pages":2,"data":[{"id":7,"email":"michael.lawson@reqres.in","first_name":"Michael","last_name":"Lawson","avatar":"https://reqres.in/img/faces/7-image.jpg"},{"id":8,"email":"lindsay.ferguson@reqres.in","first_name":"Lindsay","last_name":"Ferguson","avatar":"https://reqres.in/img/faces/8-image.jpg"},{"id":9,"email":"tobias.funke@reqres.in","first_name":"Tobias","last_name":"Funke","avatar":"https://reqres.in/img/faces/9-image.jpg"},{"id":10,"email":"byron.fields@reqres.in","first_name":"Byron","last_name":"Fields","avatar":"https://reqres.in/img/faces/10-image.jpg"},{"id":11,"email":"george.edwards@reqres.in","first_name":"George","last_name":"Edwards","avatar":"https://reqres.in/img/faces/11-image.jpg"},{"id":12,"email":"rachel.howell@reqres.in","first_name":"Rachel","last_name":"Howell","avatar":"https://reqres.in/img/faces/12-image.jpg"}],"support":{"url":"https://contentcaddy.io?utm_source=reqres&amp;utm_medium=json&amp;utm_campaign=referral","text":"Tired of writing endless social media content? Let Content Caddy generate it for you."},"_meta":{"powered_by":"🚀 ReqRes - Deploy backends in 30 seconds","upgrade_url":"https://app.reqres.in/upgrade","docs_url":"https://reqres.in","template_gallery":"https://app.reqres.in/templates","message":"This API is powered by ReqRes. Deploy your own backend in 30 seconds!","features":["30 Second Backend Templates","Custom API Endpoints","Data Persistence","Real-time Analytics"],"upgrade_cta":"Upgrade to Pro for unlimited requests, custom endpoints, and data persistence"}} 
 </msg>
<msg time="2025-10-28T12:44:05.743130" level="INFO">C:\Users\kavin\AppData\Local\Programs\Python\Python313\Lib\site-packages\urllib3\connectionpool.py:1097: InsecureRequestWarning: Unverified HTTPS request is being made to host 'reqres.in'. Adding certificate verification is strongly advised. See: https://urllib3.readthedocs.io/en/latest/advanced-usage.html#tls-warnings
  warnings.warn(</msg>
<msg time="2025-10-28T12:44:05.744750" level="INFO">${response} = &lt;Response [200]&gt;</msg>
<var>${response}</var>
<arg>reqres</arg>
<arg>url=/api/users?page=2</arg>
<doc>Sends a GET request on a previously created HTTP Session.</doc>
<status status="PASS" start="2025-10-28T12:44:05.223874" elapsed="0.520938"/>
</kw>
<kw name="Should Be Equal As Integers" owner="BuiltIn">
<msg time="2025-10-28T12:44:05.746087" level="INFO">Argument types are:
&lt;class 'int'&gt;
&lt;class 'str'&gt;</msg>
<arg>${response.status_code}</arg>
<arg>200</arg>
<doc>Fails if objects are unequal after converting them to integers.</doc>
<status status="PASS" start="2025-10-28T12:44:05.745339" elapsed="0.000841"/>
</kw>
<kw name="Should Contain" owner="BuiltIn">
<arg>${response.json()}</arg>
<arg>data</arg>
<doc>Fails if ``container`` does not contain ``item`` one or more times.</doc>
<status status="PASS" start="2025-10-28T12:44:05.747420" elapsed="0.000660"/>
</kw>
<status status="PASS" start="2025-10-28T12:44:05.220916" elapsed="0.527385"/>
</test>
<status status="PASS" start="2025-10-28T12:44:05.081072" elapsed="0.668066"/>
</suite>
<suite id="s1-s2" name="Post Api" source="D:\automation\tests\post_api.robot">
<test id="s1-s2-t1" name="Verify POST Create Post API" line="5">
<kw name="Create Session" owner="RequestsLibrary">
<msg time="2025-10-28T12:44:05.760929" level="INFO">Creating Session using : alias=jsonplaceholder, url=https://jsonplaceholder.typicode.com/, headers={},                     cookies={}, auth=None, timeout=None, proxies=None, verify=False,                     debug=0 </msg>
<arg>jsonplaceholder</arg>
<arg>https://jsonplaceholder.typicode.com/</arg>
<arg>verify=False</arg>
<doc>Create Session: create a HTTP session to a server</doc>
<status status="PASS" start="2025-10-28T12:44:05.760606" elapsed="0.000571"/>
</kw>
<kw name="Create Dictionary" owner="BuiltIn">
<msg time="2025-10-28T12:44:05.780309" level="INFO">${headers} = {'Content-Type': 'application/json'}</msg>
<var>${headers}</var>
<arg>Content-Type=application/json</arg>
<doc>Creates and returns a dictionary based on the given ``items``.</doc>
<status status="PASS" start="2025-10-28T12:44:05.778935" elapsed="0.001444"/>
</kw>
<kw name="Create Dictionary" owner="BuiltIn">
<msg time="2025-10-28T12:44:05.783696" level="INFO">${body} = {'title': 'QA Test', 'body': 'Testing POST request', 'userId': '1'}</msg>
<var>${body}</var>
<arg>title=QA Test</arg>
<arg>body=Testing POST request</arg>
<arg>userId=1</arg>
<doc>Creates and returns a dictionary based on the given ``items``.</doc>
<status status="PASS" start="2025-10-28T12:44:05.782783" elapsed="0.001017"/>
</kw>
<kw name="POST On Session" owner="RequestsLibrary">
<msg time="2025-10-28T12:44:07.846552" level="INFO">POST Request : url=https://jsonplaceholder.typicode.com/posts 
 path_url=/posts 
 headers={'User-Agent': 'python-requests/2.32.5', 'Accept-Encoding': 'gzip, deflate', 'Accept': '*/*', 'Connection': 'keep-alive', 'Content-Type': 'application/json', 'Content-Length': '67'} 
 body=b'{"title": "QA Test", "body": "Testing POST request", "userId": "1"}' 
 </msg>
<msg time="2025-10-28T12:44:07.846988" level="INFO">POST Response : url=https://jsonplaceholder.typicode.com/posts 
 status=201, reason=Created 
 headers={'Date': 'Tue, 28 Oct 2025 07:14:07 GMT', 'Content-Type': 'application/json; charset=utf-8', 'Content-Length': '88', 'Connection': 'keep-alive', 'access-control-allow-credentials': 'true', 'access-control-expose-headers': 'Location', 'Cache-Control': 'no-cache', 'etag': 'W/"58-4yK+xwOdbiAtOsHS/l2qWfFymrQ"', 'expires': '-1', 'location': 'https://jsonplaceholder.typicode.com/posts/101', 'nel': '{"report_to":"heroku-nel","response_headers":["Via"],"max_age":3600,"success_fraction":0.01,"failure_fraction":0.1}', 'pragma': 'no-cache', 'report-to': '{"group":"heroku-nel","endpoints":[{"url":"https://nel.heroku.com/reports?s=KdxGkn2%2FxvqssKe%2B4dcARk5WqEemoHYsfbuOUb%2BsVug%3D\\u0026sid=e11707d5-02a7-43ef-b45e-2cf4d2036f7d\\u0026ts=1761635647"}],"max_age":3600}', 'reporting-endpoints': 'heroku-nel="https://nel.heroku.com/reports?s=KdxGkn2%2FxvqssKe%2B4dcARk5WqEemoHYsfbuOUb%2BsVug%3D&amp;sid=e11707d5-02a7-43ef-b45e-2cf4d2036f7d&amp;ts=1761635647"', 'Server': 'cloudflare', 'vary': 'Origin, X-HTTP-Method-Override, Accept-Encoding', 'via': '2.0 heroku-router', 'x-content-type-options': 'nosniff', 'x-powered-by': 'Express', 'x-ratelimit-limit': '1000', 'x-ratelimit-remaining': '999', 'x-ratelimit-reset': '1761635675', 'cf-cache-status': 'DYNAMIC', 'CF-RAY': '9958a26cc9199c5f-SIN', 'alt-svc': 'h3=":443"; ma=86400'} 
 body={
  "title": "QA Test",
  "body": "Testing POST request",
  "userId": "1",
  "id": 101
} 
 </msg>
<msg time="2025-10-28T12:44:07.847140" level="INFO">C:\Users\kavin\AppData\Local\Programs\Python\Python313\Lib\site-packages\urllib3\connectionpool.py:1097: InsecureRequestWarning: Unverified HTTPS request is being made to host 'jsonplaceholder.typicode.com'. Adding certificate verification is strongly advised. See: https://urllib3.readthedocs.io/en/latest/advanced-usage.html#tls-warnings
  warnings.warn(</msg>
<msg time="2025-10-28T12:44:07.937895" level="INFO">${response} = &lt;Response [201]&gt;</msg>
<var>${response}</var>
<arg>jsonplaceholder</arg>
<arg>url=/posts</arg>
<arg>headers=${headers}</arg>
<arg>json=${body}</arg>
<doc>Sends a POST request on a previously created HTTP Session.</doc>
<status status="PASS" start="2025-10-28T12:44:05.788749" elapsed="2.149329"/>
</kw>
<kw name="Log To Console" owner="BuiltIn">
<arg>${response.text}</arg>
<doc>Logs the given message to the console.</doc>
<status status="PASS" start="2025-10-28T12:44:07.939239" elapsed="0.002505"/>
</kw>
<kw name="Should Be Equal As Integers" owner="BuiltIn">
<msg time="2025-10-28T12:44:07.944098" level="INFO">Argument types are:
&lt;class 'int'&gt;
&lt;class 'str'&gt;</msg>
<arg>${response.status_code}</arg>
<arg>201</arg>
<doc>Fails if objects are unequal after converting them to integers.</doc>
<status status="PASS" start="2025-10-28T12:44:07.942958" elapsed="0.001309"/>
</kw>
<kw name="Should Contain" owner="BuiltIn">
<arg>${response.json()}</arg>
<arg>id</arg>
<doc>Fails if ``container`` does not contain ``item`` one or more times.</doc>
<status status="PASS" start="2025-10-28T12:44:07.944829" elapsed="0.000857"/>
</kw>
<status status="PASS" start="2025-10-28T12:44:05.758960" elapsed="2.187208"/>
</test>
<status status="PASS" start="2025-10-28T12:44:05.750177" elapsed="2.197099"/>
</suite>
<suite id="s1-s3" name="Put Api" source="D:\automation\tests\put_api.robot">
<test id="s1-s3-t1" name="Verify PUT Update Post API" line="5">
<kw name="Create Session" owner="RequestsLibrary">
<msg time="2025-10-28T12:44:07.961242" level="INFO">Creating Session using : alias=jsonplaceholder, url=https://jsonplaceholder.typicode.com/, headers={},                     cookies={}, auth=None, timeout=None, proxies=None, verify=False,                     debug=0 </msg>
<arg>jsonplaceholder</arg>
<arg>https://jsonplaceholder.typicode.com/</arg>
<arg>verify=False</arg>
<doc>Create Session: create a HTTP session to a server</doc>
<status status="PASS" start="2025-10-28T12:44:07.960848" elapsed="0.000860"/>
</kw>
<kw name="Create Dictionary" owner="BuiltIn">
<msg time="2025-10-28T12:44:07.962611" level="INFO">${headers} = {'Content-Type': 'application/json'}</msg>
<var>${headers}</var>
<arg>Content-Type=application/json</arg>
<doc>Creates and returns a dictionary based on the given ``items``.</doc>
<status status="PASS" start="2025-10-28T12:44:07.962193" elapsed="0.000471"/>
</kw>
<kw name="Create Dictionary" owner="BuiltIn">
<msg time="2025-10-28T12:44:07.963303" level="INFO">${body} = {'id': '1', 'title': 'Updated Title', 'body': 'Testing PUT request', 'userId': '1'}</msg>
<var>${body}</var>
<arg>id=1</arg>
<arg>title=Updated Title</arg>
<arg>body=Testing PUT request</arg>
<arg>userId=1</arg>
<doc>Creates and returns a dictionary based on the given ``items``.</doc>
<status status="PASS" start="2025-10-28T12:44:07.962997" elapsed="0.000349"/>
</kw>
<kw name="PUT On Session" owner="RequestsLibrary">
<msg time="2025-10-28T12:44:09.476847" level="INFO">PUT Request : url=https://jsonplaceholder.typicode.com/posts/1 
 path_url=/posts/1 
 headers={'User-Agent': 'python-requests/2.32.5', 'Accept-Encoding': 'gzip, deflate', 'Accept': '*/*', 'Connection': 'keep-alive', 'Content-Type': 'application/json', 'Content-Length': '83'} 
 body=b'{"id": "1", "title": "Updated Title", "body": "Testing PUT request", "userId": "1"}' 
 </msg>
<msg time="2025-10-28T12:44:09.477028" level="INFO">PUT Response : url=https://jsonplaceholder.typicode.com/posts/1 
 status=200, reason=OK 
 headers={'Date': 'Tue, 28 Oct 2025 07:14:09 GMT', 'Content-Type': 'application/json; charset=utf-8', 'Transfer-Encoding': 'chunked', 'Connection': 'keep-alive', 'access-control-allow-credentials': 'true', 'Cache-Control': 'no-cache', 'etag': 'W/"5b-EYNNWqH7LjuS1EbsNvSm+kzlKKk"', 'expires': '-1', 'nel': '{"report_to":"heroku-nel","response_headers":["Via"],"max_age":3600,"success_fraction":0.01,"failure_fraction":0.1}', 'pragma': 'no-cache', 'report-to': '{"group":"heroku-nel","endpoints":[{"url":"https://nel.heroku.com/reports?s=Qvidm4%2BhEUDak7EladNpCmOqa1BINLoEUHO5R07t1kY%3D\\u0026sid=e11707d5-02a7-43ef-b45e-2cf4d2036f7d\\u0026ts=1761635649"}],"max_age":3600}', 'reporting-endpoints': 'heroku-nel="https://nel.heroku.com/reports?s=Qvidm4%2BhEUDak7EladNpCmOqa1BINLoEUHO5R07t1kY%3D&amp;sid=e11707d5-02a7-43ef-b45e-2cf4d2036f7d&amp;ts=1761635649"', 'Server': 'cloudflare', 'vary': 'Origin, Accept-Encoding', 'via': '2.0 heroku-router', 'x-content-type-options': 'nosniff', 'x-powered-by': 'Express', 'x-ratelimit-limit': '1000', 'x-ratelimit-remaining': '998', 'x-ratelimit-reset': '1761635675', 'cf-cache-status': 'DYNAMIC', 'Content-Encoding': 'gzip', 'CF-RAY': '9958a273791b5cec-SIN', 'alt-svc': 'h3=":443"; ma=86400'} 
 body={
  "id": 1,
  "title": "Updated Title",
  "body": "Testing PUT request",
  "userId": "1"
} 
 </msg>
<msg time="2025-10-28T12:44:09.477143" level="INFO">C:\Users\kavin\AppData\Local\Programs\Python\Python313\Lib\site-packages\urllib3\connectionpool.py:1097: InsecureRequestWarning: Unverified HTTPS request is being made to host 'jsonplaceholder.typicode.com'. Adding certificate verification is strongly advised. See: https://urllib3.readthedocs.io/en/latest/advanced-usage.html#tls-warnings
  warnings.warn(</msg>
<msg time="2025-10-28T12:44:09.477631" level="INFO">${response} = &lt;Response [200]&gt;</msg>
<var>${response}</var>
<arg>jsonplaceholder</arg>
<arg>url=/posts/1</arg>
<arg>headers=${headers}</arg>
<arg>json=${body}</arg>
<doc>Sends a PUT request on a previously created HTTP Session.</doc>
<status status="PASS" start="2025-10-28T12:44:07.966098" elapsed="1.511596"/>
</kw>
<kw name="Log To Console" owner="BuiltIn">
<arg>${response.text}</arg>
<doc>Logs the given message to the console.</doc>
<status status="PASS" start="2025-10-28T12:44:09.478052" elapsed="0.000789"/>
</kw>
<kw name="Should Be Equal As Integers" owner="BuiltIn">
<msg time="2025-10-28T12:44:09.479456" level="INFO">Argument types are:
&lt;class 'int'&gt;
&lt;class 'str'&gt;</msg>
<arg>${response.status_code}</arg>
<arg>200</arg>
<doc>Fails if objects are unequal after converting them to integers.</doc>
<status status="PASS" start="2025-10-28T12:44:09.479033" elapsed="0.000609"/>
</kw>
<kw name="Should Contain" owner="BuiltIn">
<arg>${response.json()}</arg>
<arg>title</arg>
<doc>Fails if ``container`` does not contain ``item`` one or more times.</doc>
<status status="PASS" start="2025-10-28T12:44:09.479935" elapsed="0.000724"/>
</kw>
<status status="PASS" start="2025-10-28T12:44:07.959763" elapsed="1.521253"/>
</test>
<status status="PASS" start="2025-10-28T12:44:07.948456" elapsed="1.533429"/>
</suite>
<status status="PASS" start="2025-10-28T12:44:05.046036" elapsed="4.436950"/>
</suite>
<statistics>
<total>
<stat pass="3" fail="0" skip="0">All Tests</stat>
</total>
<tag>
</tag>
<suite>
<stat name="Tests" id="s1" pass="3" fail="0" skip="0">Tests</stat>
<stat name="Get Api" id="s1-s1" pass="1" fail="0" skip="0">Tests.Get Api</stat>
<stat name="Post Api" id="s1-s2" pass="1" fail="0" skip="0">Tests.Post Api</stat>
<stat name="Put Api" id="s1-s3" pass="1" fail="0" skip="0">Tests.Put Api</stat>
</suite>
</statistics>
<errors>
</errors>
</robot>
